{
	"name": "AzureSqlDatabase1",
	"type": "Microsoft.DataFactory/factories/linkedservices",
	"properties": {
		"type": "AzureSqlDatabase",
		"typeProperties": {
			"connectionString":
			{
			  "value": "integrated security=False;encrypt=True;connection timeout=30;data source=darwinpocserver.database.windows.net;initial catalog=darwinpoc;user id=prasanna",
				"type": "SecureString"
			},
			"encryptedCredential":
			{
			  "value": "ew0KICAiVmVyc2lvbiI6ICIyMDE3LTExLTMwIiwNCiAgIlByb3RlY3Rpb25Nb2RlIjogIktleSIsDQogICJTZWNyZXRDb250ZW50VHlwZSI6ICJQbGFpbnRleHQiLA0KICAiQ3JlZGVudGlhbElkIjogIkRBUldJTlBPQy1BREYtU0lUXzU2MGRlZjA0LTg1MzEtNDFiYy05NDYyLWU5MzkyZGQ5NTNiZCINCn0=",
			  "type": "SecureString"
			}
		}
	}
}
